{
	"splash": {
		"playOnEnter": true,
		"loopSequence": true,
		"startTime": 0,
		"endTime": 3,
		"menuLinkText": "Go to Menu",
		"introText": "This is the splash screen. It loops on a ticking clock."
	},
	"menu": {
		"playOnEnter": true,
		"loopSequence": true,
		"startTime": 20.3,
		"endTime": 21.6,
		"introText": "This is the menu screen. It loops on a small sequence."
	},
	"scenes": {
		"scene1": {
			"id": "scene1",
			"isVisited": false,
			"isCorrect": false,
			"isOnMenu": true,
			"playOnEnter": true,
			"isLeaf": false,
			"startTime": 3,
			"endTime": 19,
			"menuText": "Start!",
			"introText": "This is Scene 1: slippers.",
			"branches": [			
				{
					"id": "scene2",
					"linkText": "Choice 1",
					"condition": "",
					"isVisited": false,
					"playOnEnter": true
				},
				{
					"id": "scene3",
					"linkText": "Choice 2",
					"condition": "",
					"isVisited": false,
					"playOnEnter": true
				},
				{
					"id": "scene4",
					"linkText": "Choice 3",
					"condition": "",
					"isVisited": false,
					"playOnEnter": true
				}
			]
		},
		"scene2": {
			"id": "scene2",
			"isVisited": false,
			"isCorrect": false,
			"isOnMenu": false,
			"playOnEnter": true,
			"isLeaf": false,
			"startTime": 22.5,
			"endTime": 32,
			"menuText": "",
			"introText": "Scene 2: Crack on wall.",
			"branches": [			
				{
					"id": "scene5",
					"linkText": "Choice 1",
					"condition": "",
					"isVisited": false,
					"playOnEnter": true
				},
				{
					"id": "scene5",
					"linkText": "Choice 2",
					"condition": "",
					"isVisited": false,
					"playOnEnter": true
				},
				{
					"id": "scene7",
					"linkText": "Choice 3",
					"condition": "",
					"isVisited": false,
					"playOnEnter": true
				}
			]
		},
		"scene3": {
			"id": "scene3",
			"isVisited": false,
			"isCorrect": false,
			"isOnMenu": false,
			"playOnEnter": true,
			"isLeaf": false,
			"startTime": 33.3,
			"endTime": 34.2,
			"menuText": "",
			"introText": "Scene 3: 2 women!",
			"branches": [			
				{
					"id": "scene8",
					"linkText": "Choice 1",
					"condition": "",
					"isVisited": false,
					"playOnEnter": true
				},
				{
					"id": "scene9",
					"linkText": "Choice 2",
					"condition": "",
					"isVisited": false,
					"playOnEnter": true
				},
				{
					"id": "scene10",
					"linkText": "Choice 3",
					"condition": "",
					"isVisited": false,
					"playOnEnter": true
				}
			]
		},
		"scene4": {
			"id": "scene4",
			"parentID": "scene1",
			"isVisited": false,
			"isCorrect": false,
			"isOnMenu": false,
			"playOnEnter": true,
			"isLeaf": false,
			"startTime": 35,
			"endTime": 48,
			"menuText": "",
			"introText": "Scene 4: Corridor.",
			"branches": [			
				{
					"id": "scene11",
					"linkText": "Choice 1",
					"condition": "",
					"isVisited": false,
					"playOnEnter": true
				},
				{
					"id": "scene12",
					"linkText": "Choice 2",
					"condition": "",
					"isVisited": false,
					"playOnEnter": true
				},
				{
					"id": "scene13",
					"linkText": "Choice 3",
					"condition": "",
					"isVisited": false,
					"playOnEnter": true
				}
			]
		},
		"scene5": {
			"id": "scene5",
			"parentID": "scene2",
			"isVisited": false,
			"isCorrect": false,
			"isOnMenu": false,
			"playOnEnter": true,
			"isLeaf": false,
			"startTime": 49,
			"endTime": 50,
			"menuText": "",
			"introText": "Scene 5: Christ go round!",
			"branches": [			
				{
					"id": "scene14",
					"linkText": "Choice 1",
					"condition": "",
					"isVisited": false,
					"playOnEnter": true
				},
				{
					"id": "scene15",
					"linkText": "Choice 2",
					"condition": "",
					"isVisited": false,
					"playOnEnter": true
				}
			]
		},
		"scene6": {
			"id": "scene6",
			"parentID": "scene2",
			"isVisited": false,
			"isCorrect": false,
			"isOnMenu": false,
			"playOnEnter": true,
			"isLeaf": false,
			"startTime": 51,
			"endTime": 55,
			"menuText": "",
			"introText": "Scene 6: stairs.",
			"branches": [			
				{
					"id": "scene16",
					"linkText": "Choice 1",
					"condition": "",
					"isVisited": false,
					"playOnEnter": true
				},
				{
					"id": "scene17",
					"linkText": "Choice 2",
					"condition": "",
					"isVisited": false,
					"playOnEnter": true
				}
			]
		},
		"scene7": {
			"id": "scene7",
			"parentID": "scene2",
			"isVisited": false,
			"isCorrect": false,
			"isOnMenu": false,
			"playOnEnter": true,
			"isLeaf": false,
			"startTime": 55,
			"endTime": 60,
			"menuText": "",
			"introText": "Scene 7: Christ.",
			"branches": [			
				{
					"id": "scene18",
					"linkText": "Choice 1",
					"condition": "",
					"isVisited": false,
					"playOnEnter": true
				},
				{
					"id": "scene19",
					"linkText": "Choice 2",
					"condition": "",
					"isVisited": false,
					"playOnEnter": true
				}
			]
		},
		"scene8": {
			"id": "scene8",
			"parentID": "scene3",
			"isVisited": false,
			"isCorrect": false,
			"isOnMenu": false,
			"playOnEnter": true,
			"isLeaf": false,
			"startTime": 60,
			"endTime": 63,
			"menuText": "",
			"introText": "Scene 8: stoup.",
			"branches": [			
				{
					"id": "scene20",
					"linkText": "Choice 1",
					"condition": "",
					"isVisited": false,
					"playOnEnter": true
				},
				{
					"id": "scene21",
					"linkText": "Choice 2",
					"condition": "",
					"isVisited": false,
					"playOnEnter": true
				}
			]
		},
		"scene9": {
			"id": "scene9",
			"parentID": "scene3",
			"isVisited": false,
			"isCorrect": false,
			"isOnMenu": false,
			"playOnEnter": true,
			"isLeaf": false,
			"startTime": 64,
			"endTime": 75,
			"menuText": "",
			"introText": "Scene 9: curtains.",
			"branches": [			
				{
					"id": "scene22",
					"linkText": "Choice 1",
					"condition": "",
					"isVisited": false,
					"playOnEnter": true
				},
				{
					"id": "scene23",
					"linkText": "Choice 2",
					"condition": "",
					"isVisited": false,
					"playOnEnter": true
				}
			]
		},
		"scene10": {
			"id": "scene10",
			"parentID": "scene3",
			"isVisited": false,
			"isCorrect": false,
			"isOnMenu": false,
			"playOnEnter": true,
			"isLeaf": false,
			"startTime": 76,
			"endTime": 90,
			"menuText": "",
			"introText": "Scene 10: mirror in.",
			"branches": [			
				{
					"id": "scene24",
					"linkText": "Choice 1",
					"condition": "",
					"isVisited": false,
					"playOnEnter": true
				},
				{
					"id": "scene25",
					"linkText": "Choice 2",
					"condition": "",
					"isVisited": false,
					"playOnEnter": true
				}
			]
		},
		"scene11": {
			"id": "scene11",
			"parentID": "scene4",
			"isVisited": false,
			"isCorrect": false,
			"isOnMenu": false,
			"playOnEnter": true,
			"isLeaf": false,
			"startTime": 91,
			"endTime": 95,
			"menuText": "",
			"introText": "Scene 11: mirror span.",
			"branches": [			
				{
					"id": "scene26",
					"linkText": "Choice 1",
					"condition": "",
					"isVisited": false,
					"playOnEnter": true
				},
				{
					"id": "scene27",
					"linkText": "Choice 2",
					"condition": "",
					"isVisited": false,
					"playOnEnter": true
				}
			]
		},
		"scene12": {
			"id": "scene12",
			"parentID": "scene4",
			"isVisited": false,
			"isCorrect": false,
			"isOnMenu": false,
			"playOnEnter": true,
			"isLeaf": false,
			"startTime": 96,
			"endTime": 114,
			"menuText": "",
			"introText": "Scene 12: mirror out.",
			"branches": [			
				{
					"id": "scene28",
					"linkText": "Choice 1",
					"condition": "",
					"isVisited": false,
					"playOnEnter": true
				},
				{
					"id": "scene29",
					"linkText": "Choice 2",
					"condition": "",
					"isVisited": false,
					"playOnEnter": true
				}
			]
		},
		"scene13": {
			"id": "scene13",
			"parentID": "scene4",
			"isVisited": false,
			"isCorrect": false,
			"isOnMenu": false,
			"playOnEnter": true,
			"isLeaf": false,
			"startTime": 116,
			"endTime": 129,
			"menuText": "",
			"introText": "Scene 13: mirror out.",
			"branches": [			
				{
					"id": "scene30",
					"linkText": "Go on",
					"condition": "",
					"isVisited": false,
					"playOnEnter": true
				},
				{
					"id": "menu",
					"linkText": "Back to menu",
					"condition": "",
					"isVisited": false,
					"playOnEnter": true
				}
			]
		},
		"scene14": {
			"id": "scene14",
			"parentID": "scene5",
			"isVisited": false,
			"isCorrect": false,
			"isOnMenu": false,
			"playOnEnter": true,
			"isLeaf": false,
			"startTime": 130,
			"endTime": 139,
			"menuText": "",
			"introText": "Scene 14: ceiling.",
			"branches": [			
				{
					"id": "scene4",
					"linkText": "Try another branch",
					"condition": "",
					"isVisited": false,
					"playOnEnter": true
				},
				{
					"id": "menu",
					"linkText": "Back to menu",
					"condition": "",
					"isVisited": false,
					"playOnEnter": true
				}
			]
		},
		"scene15": {
			"id": "scene15",
			"parentID": "scene5",
			"isVisited": false,
			"isCorrect": false,
			"isOnMenu": false,
			"playOnEnter": true,
			"isLeaf": false,
			"startTime": 140,
			"endTime": 148,
			"menuText": "",
			"introText": "Scene 15: stairs floor.",
			"branches": [			
				{
					"id": "scene4",
					"linkText": "Try another branch",
					"condition": "",
					"isVisited": false,
					"playOnEnter": true
				},
				{
					"id": "menu",
					"linkText": "Back to menu",
					"condition": "",
					"isVisited": false,
					"playOnEnter": true
				}
			]
		},
		"scene16": {
			"id": "scene16",
			"parentID": "scene6",
			"isVisited": false,
			"isCorrect": false,
			"isOnMenu": false,
			"playOnEnter": true,
			"isLeaf": false,
			"startTime": 149,
			"endTime": 156,
			"menuText": "",
			"introText": "Scene 16: yellow curtain.",
			"branches": [			
				{
					"id": "scene4",
					"linkText": "Try another branch",
					"condition": "",
					"isVisited": false,
					"playOnEnter": true
				},
				{
					"id": "menu",
					"linkText": "Back to menu",
					"condition": "",
					"isVisited": false,
					"playOnEnter": true
				}
			]
		},
		"scene17": {
			"id": "scene17",
			"parentID": "scene6",
			"isVisited": false,
			"isCorrect": false,
			"isOnMenu": false,
			"playOnEnter": true,
			"isLeaf": false,
			"startTime": 157,
			"endTime": 179,
			"menuText": "",
			"introText": "Scene 17: up stairs.",
			"branches": [			
				{
					"id": "scene4",
					"linkText": "Try another branch",
					"condition": "",
					"isVisited": false,
					"playOnEnter": true
				},
				{
					"id": "menu",
					"linkText": "Back to menu",
					"condition": "",
					"isVisited": false,
					"playOnEnter": true
				}
			]
		},
		"scene18": {
			"id": "scene18",
			"parentID": "scene7",
			"isVisited": false,
			"isCorrect": false,
			"isOnMenu": false,
			"playOnEnter": true,
			"isLeaf": false,
			"startTime": 180,
			"endTime": 181,
			"menuText": "",
			"introText": "Scene 18: in heaven.",
			"branches": [			
				{
					"id": "scene4",
					"linkText": "Try another branch",
					"condition": "",
					"isVisited": false,
					"playOnEnter": true
				},
				{
					"id": "menu",
					"linkText": "Back to menu",
					"condition": "",
					"isVisited": false,
					"playOnEnter": true
				}
			]
		},
		"scene19": {
			"id": "scene19",
			"parentID": "scene7",
			"isVisited": false,
			"isCorrect": false,
			"isOnMenu": false,
			"playOnEnter": true,
			"isLeaf": false,
			"startTime": 181,
			"endTime": 184,
			"menuText": "",
			"introText": "Scene 19: tiled floor.",
			"branches": [			
				{
					"id": "scene4",
					"linkText": "Try another branch",
					"condition": "",
					"isVisited": false,
					"playOnEnter": true
				},
				{
					"id": "menu",
					"linkText": "Back to menu",
					"condition": "",
					"isVisited": false,
					"playOnEnter": true
				}
			]
		},
		"scene20": {
			"id": "scene20",
			"parentID": "scene8",
			"isVisited": false,
			"isCorrect": false,
			"isOnMenu": false,
			"playOnEnter": true,
			"isLeaf": false,
			"startTime": 185,
			"endTime": 192,
			"menuText": "",
			"introText": "Scene 20: Ejaculation/Flower.",
			"branches": [			
				{
					"id": "scene2",
					"linkText": "Try another branch",
					"condition": "",
					"isVisited": false,
					"playOnEnter": true
				},
				{
					"id": "menu",
					"linkText": "Back to menu",
					"condition": "",
					"isVisited": false,
					"playOnEnter": true
				}
			]
		},
		"scene21": {
			"id": "scene21",
			"parentID": "scene8",
			"isVisited": false,
			"isCorrect": false,
			"isOnMenu": false,
			"playOnEnter": true,
			"isLeaf": false,
			"startTime": 193,
			"endTime": 203,
			"menuText": "",
			"introText": "Scene 21: twigs.",
			"branches": [			
				{
					"id": "scene2",
					"linkText": "Try another branch",
					"condition": "",
					"isVisited": false,
					"playOnEnter": true
				},
				{
					"id": "menu",
					"linkText": "Back to menu",
					"condition": "",
					"isVisited": false,
					"playOnEnter": true
				}
			]
		},
		"scene22": {
			"id": "scene22",
			"parentID": "scene9",
			"isVisited": false,
			"isCorrect": false,
			"isOnMenu": false,
			"playOnEnter": true,
			"isLeaf": false,
			"startTime": 204,
			"endTime": 215,
			"menuText": "",
			"introText": "Scene 22: kitchen table.",
			"branches": [			
				{
					"id": "scene2",
					"linkText": "Try another branch",
					"condition": "",
					"isVisited": false,
					"playOnEnter": true
				},
				{
					"id": "menu",
					"linkText": "Back to menu",
					"condition": "",
					"isVisited": false,
					"playOnEnter": true
				}
			]
		},
		"scene23": {
			"id": "scene23",
			"parentID": "scene9",
			"isVisited": false,
			"isCorrect": false,
			"isOnMenu": false,
			"playOnEnter": true,
			"isLeaf": false,
			"startTime": 216,
			"endTime": 225,
			"menuText": "",
			"introText": "Scene 23: kitchen span.",
			"branches": [			
				{
					"id": "scene2",
					"linkText": "Try another branch",
					"condition": "",
					"isVisited": false,
					"playOnEnter": true
				},
				{
					"id": "menu",
					"linkText": "Back to menu",
					"condition": "",
					"isVisited": false,
					"playOnEnter": true
				}
			]
		},
		"scene24": {
			"id": "scene24",
			"parentID": "scene10",
			"isVisited": false,
			"isCorrect": false,
			"isOnMenu": false,
			"playOnEnter": true,
			"isLeaf": false,
			"startTime": 226,
			"endTime": 240,
			"menuText": "",
			"introText": "Scene 24: leafy window.",
			"branches": [			
				{
					"id": "scene2",
					"linkText": "Try another branch",
					"condition": "",
					"isVisited": false,
					"playOnEnter": true
				},
				{
					"id": "menu",
					"linkText": "Back to menu",
					"condition": "",
					"isVisited": false,
					"playOnEnter": true
				}
			]
		},
		"scene25": {
			"id": "scene25",
			"parentID": "scene10",
			"isVisited": false,
			"isCorrect": false,
			"isOnMenu": false,
			"playOnEnter": true,
			"isLeaf": false,
			"startTime": 241,
			"endTime": 250,
			"menuText": "",
			"introText": "Scene 25: pink bedroom.",
			"branches": [			
				{
					"id": "scene2",
					"linkText": "Try another branch",
					"condition": "",
					"isVisited": false,
					"playOnEnter": true
				},
				{
					"id": "menu",
					"linkText": "Back to menu",
					"condition": "",
					"isVisited": false,
					"playOnEnter": true
				}
			]
		},
		"scene26": {
			"id": "scene26",
			"parentID": "scene11",
			"isVisited": false,
			"isCorrect": false,
			"isOnMenu": false,
			"playOnEnter": true,
			"isLeaf": false,
			"startTime": 250.5,
			"endTime": 251.5,
			"menuText": "",
			"introText": "Scene 26: virgin statue.",
			"branches": [			
				{
					"id": "scene3",
					"linkText": "Try another branch",
					"condition": "",
					"isVisited": false,
					"playOnEnter": true
				},
				{
					"id": "menu",
					"linkText": "Back to menu",
					"condition": "",
					"isVisited": false,
					"playOnEnter": true
				}
			]
		},
		"scene27": {
			"id": "scene27",
			"parentID": "scene11",
			"isVisited": false,
			"isCorrect": false,
			"isOnMenu": false,
			"playOnEnter": true,
			"isLeaf": false,
			"startTime": 252,
			"endTime": 267,
			"menuText": "",
			"introText": "Scene 27: lace curtain.",
			"branches": [			
				{
					"id": "scene3",
					"linkText": "Try another branch",
					"condition": "",
					"isVisited": false,
					"playOnEnter": true
				},
				{
					"id": "menu",
					"linkText": "Back to menu",
					"condition": "",
					"isVisited": false,
					"playOnEnter": true
				}
			]
		},
		"scene28": {
			"id": "scene28",
			"parentID": "scene12",
			"isVisited": false,
			"isCorrect": false,
			"isOnMenu": false,
			"playOnEnter": true,
			"isLeaf": false,
			"startTime": 268,
			"endTime": 270,
			"menuText": "",
			"introText": "Scene 28: leaky ceiling.",
			"branches": [			
				{
					"id": "scene3",
					"linkText": "Try another branch",
					"condition": "",
					"isVisited": false,
					"playOnEnter": true
				},
				{
					"id": "menu",
					"linkText": "Back to menu",
					"condition": "",
					"isVisited": false,
					"playOnEnter": true
				}
			]
		},
		"scene29": {
			"id": "scene29",
			"parentID": "scene12",
			"isVisited": false,
			"isCorrect": false,
			"isOnMenu": false,
			"playOnEnter": true,
			"isLeaf": false,
			"startTime": 271,
			"endTime": 278,
			"menuText": "",
			"introText": "Scene 29: suit in wardrobe.",
			"branches": [			
				{
					"id": "scene3",
					"linkText": "Try another branch",
					"condition": "",
					"isVisited": false,
					"playOnEnter": true
				},
				{
					"id": "menu",
					"linkText": "Back to menu",
					"condition": "",
					"isVisited": false,
					"playOnEnter": true
				}
			]
		},
		"scene30": {
			"id": "scene30",
			"parentID": "scene13",
			"isVisited": false,
			"isCorrect": false,
			"isOnMenu": false,
			"playOnEnter": true,
			"isLeaf": false,
			"startTime": 279,
			"endTime": 294,
			"menuText": "",
			"introText": "Scene 30: family picture.",
			"branches": [			
				{
					"id": "scene3",
					"linkText": "Try another branch",
					"condition": "",
					"isVisited": false,
					"playOnEnter": true
				},
				{
					"id": "menu",
					"linkText": "Back to menu",
					"condition": "",
					"isVisited": false,
					"playOnEnter": true
				}
			]
		}
	}	
}